module custodian/gateway

go 1.22

toolchain go1.23.4

replace custodian/components/lib-common => ../lib-common

require (
	custodian/components/lib-common v0.0.0-00010101000000-000000000000
	github.com/google/uuid v1.6.0
	github.com/gorilla/securecookie v1.1.2
	github.com/labstack/echo/v4 v4.12.0
	github.com/samber/slog-echo v1.14.4
	github.com/stretchr/testify v1.9.0
	github.com/zitadel/oidc/v3 v3.25.1
)

require (
	github.com/davecgh/go-spew v1.1.2-0.20180830191138-d8f796af33cc // indirect
	github.com/fsnotify/fsnotify v1.7.0 // indirect
	github.com/go-jose/go-jose/v4 v4.0.2 // indirect
	github.com/go-logr/logr v1.4.2 // indirect
	github.com/go-logr/stdr v1.2.2 // indirect
	github.com/golang-cz/devslog v0.0.11 // indirect
	github.com/golang-jwt/jwt v3.2.2+incompatible // indirect
	github.com/hashicorp/hcl v1.0.0 // indirect
	github.com/labstack/gommon v0.4.2 // indirect
	github.com/magiconair/properties v1.8.7 // indirect
	github.com/mattn/go-colorable v0.1.13 // indirect
	github.com/mattn/go-isatty v0.0.20 // indirect
	github.com/mitchellh/mapstructure v1.5.0 // indirect
	github.com/muhlemmer/gu v0.3.1 // indirect
	github.com/pelletier/go-toml/v2 v2.2.2 // indirect
	github.com/pmezard/go-difflib v1.0.1-0.20181226105442-5d4384ee4fb2 // indirect
	github.com/sagikazarmark/locafero v0.4.0 // indirect
	github.com/sagikazarmark/slog-shim v0.1.0 // indirect
	github.com/samber/lo v1.46.0 // indirect
	github.com/sirupsen/logrus v1.9.3 // indirect
	github.com/sourcegraph/conc v0.3.0 // indirect
	github.com/spf13/afero v1.11.0 // indirect
	github.com/spf13/cast v1.6.0 // indirect
	github.com/spf13/pflag v1.0.5 // indirect
	github.com/spf13/viper v1.19.0 // indirect
	github.com/subosito/gotenv v1.6.0 // indirect
	github.com/valyala/bytebufferpool v1.0.0 // indirect
	github.com/valyala/fasttemplate v1.2.2 // indirect
	github.com/zitadel/logging v0.6.0 // indirect
	github.com/zitadel/schema v1.3.0 // indirect
	go.opentelemetry.io/otel v1.28.0 // indirect
	go.opentelemetry.io/otel/metric v1.28.0 // indirect
	go.opentelemetry.io/otel/trace v1.28.0 // indirect
	go.uber.org/atomic v1.9.0 // indirect
	go.uber.org/multierr v1.9.0 // indirect
	golang.org/x/crypto v0.26.0 // indirect
	golang.org/x/exp v0.0.0-20230905200255-921286631fa9 // indirect
	golang.org/x/net v0.27.0 // indirect
	golang.org/x/oauth2 v0.21.0 // indirect
	golang.org/x/sys v0.25.0 // indirect
	golang.org/x/text v0.17.0 // indirect
	golang.org/x/time v0.5.0 // indirect
	gopkg.in/ini.v1 v1.67.0 // indirect
	gopkg.in/yaml.v2 v2.4.0 // indirect
	gopkg.in/yaml.v3 v3.0.1 // indirect
)
