module custodian/key-manager

go 1.22

toolchain go1.23.4

replace custodian/components/lib-common => ../lib-common

require (
	custodian/components/lib-common v0.0.0-00010101000000-000000000000
	github.com/google/uuid v1.6.0
	github.com/gorilla/mux v1.8.1
	github.com/piprate/json-gold v0.5.0
	github.com/swaggo/swag v1.16.3
)

require (
	github.com/KyleBanks/depth v1.2.1 // indirect
	github.com/PuerkitoBio/purell v1.1.1 // indirect
	github.com/PuerkitoBio/urlesc v0.0.0-20170810143723-de5bf2ad4578 // indirect
	github.com/fsnotify/fsnotify v1.7.0 // indirect
	github.com/go-openapi/jsonpointer v0.19.5 // indirect
	github.com/go-openapi/jsonreference v0.19.6 // indirect
	github.com/go-openapi/spec v0.20.4 // indirect
	github.com/go-openapi/swag v0.19.15 // indirect
	github.com/golang-cz/devslog v0.0.11 // indirect
	github.com/golang-jwt/jwt/v5 v5.2.1 // indirect
	github.com/hashicorp/errwrap v1.1.0 // indirect
	github.com/hashicorp/go-multierror v1.1.1 // indirect
	github.com/hashicorp/hcl v1.0.0 // indirect
	github.com/josharian/intern v1.0.0 // indirect
	github.com/knakk/rdf v0.0.0-20190304171630-8521bf4c5042 // indirect
	github.com/magiconair/properties v1.8.7 // indirect
	github.com/mailru/easyjson v0.7.6 // indirect
	github.com/mitchellh/mapstructure v1.5.0 // indirect
	github.com/pelletier/go-toml/v2 v2.2.2 // indirect
	github.com/pquerna/cachecontrol v0.0.0-20180517163645-1555304b9b35 // indirect
	github.com/rabbitmq/amqp091-go v1.10.0 // indirect
	github.com/sagikazarmark/locafero v0.4.0 // indirect
	github.com/sagikazarmark/slog-shim v0.1.0 // indirect
	github.com/sourcegraph/conc v0.3.0 // indirect
	github.com/spf13/afero v1.11.0 // indirect
	github.com/spf13/cast v1.6.0 // indirect
	github.com/spf13/pflag v1.0.5 // indirect
	github.com/spf13/viper v1.19.0 // indirect
	github.com/subosito/gotenv v1.6.0 // indirect
	go.uber.org/atomic v1.9.0 // indirect
	go.uber.org/multierr v1.9.0 // indirect
	golang.org/x/crypto v0.26.0 // indirect
	golang.org/x/exp v0.0.0-20230905200255-921286631fa9 // indirect
	golang.org/x/net v0.25.0 // indirect
	golang.org/x/sys v0.25.0 // indirect
	golang.org/x/text v0.17.0 // indirect
	golang.org/x/tools v0.21.1-0.20240508182429-e35e4ccd0d2d // indirect
	gopkg.in/ini.v1 v1.67.0 // indirect
	gopkg.in/validator.v2 v2.0.1 // indirect
	gopkg.in/yaml.v2 v2.4.0 // indirect
	gopkg.in/yaml.v3 v3.0.1 // indirect
)
