module custodian/tools/quitsh-custodian

go 1.23.4

replace github.com/sdsc-ordes/quitsh => ../quitsh

require (
	deedles.dev/xiter v0.1.1
	github.com/creasty/defaults v1.8.0
	github.com/go-playground/validator/v10 v10.23.0
	github.com/hashicorp/go-version v1.7.0
	github.com/huandu/go-clone v1.7.2
	github.com/sdsc-ordes/quitsh v0.0.0-00010101000000-000000000000
	github.com/spf13/cobra v1.8.1
	github.com/spf13/pflag v1.0.5
	github.com/stretchr/testify v1.10.0
	gitlab.com/gitlab-org/api/client-go v0.118.0
	gopkg.in/yaml.v3 v3.0.1
)

require (
	github.com/bmatcuk/doublestar/v4 v4.7.1 // indirect
	github.com/charlievieth/fastwalk v1.0.9 // indirect
	github.com/containers/image/v5 v5.33.0 // indirect
	github.com/containers/storage v1.56.0 // indirect
	github.com/davecgh/go-spew v1.1.2-0.20180830191138-d8f796af33cc // indirect
	github.com/gabriel-vasile/mimetype v1.4.7 // indirect
	github.com/go-playground/locales v0.14.1 // indirect
	github.com/go-playground/universal-translator v0.18.1 // indirect
	github.com/goccy/go-yaml v1.15.13 // indirect
	github.com/golang-cz/devslog v0.0.11 // indirect
	github.com/google/go-querystring v1.1.0 // indirect
	github.com/hashicorp/errwrap v1.1.0 // indirect
	github.com/hashicorp/go-cleanhttp v0.5.2 // indirect
	github.com/hashicorp/go-multierror v1.1.1 // indirect
	github.com/hashicorp/go-retryablehttp v0.7.7 // indirect
	github.com/inconshreveable/mousetrap v1.1.0 // indirect
	github.com/leodido/go-urn v1.4.0 // indirect
	github.com/mattn/go-isatty v0.0.20 // indirect
	github.com/opencontainers/go-digest v1.0.0 // indirect
	github.com/otiai10/copy v1.14.0 // indirect
	github.com/pmezard/go-difflib v1.0.1-0.20181226105442-5d4384ee4fb2 // indirect
	golang.org/x/crypto v0.31.0 // indirect
	golang.org/x/mod v0.22.0 // indirect
	golang.org/x/net v0.33.0 // indirect
	golang.org/x/oauth2 v0.23.0 // indirect
	golang.org/x/sync v0.10.0 // indirect
	golang.org/x/sys v0.28.0 // indirect
	golang.org/x/text v0.21.0 // indirect
	golang.org/x/time v0.3.0 // indirect
)
